2021-01-28T11:29:05.5559828+07:00  [INF] Now listening on: "http://127.0.0.1:19497" (d826f4b8)
2021-01-28T11:29:05.5688225+07:00  [INF] Application started. Press Ctrl+C to shut down. (dcaefe54)
2021-01-28T11:29:05.5713544+07:00  [INF] Hosting environment: "Production" (c3307c92)
2021-01-28T11:29:05.5732553+07:00  [INF] Content root path: "D:\CreatePenalty\New folder\CreatePenaltyAPI\CreatePenaltyAPI" (b5d60022)
2021-01-28T17:01:06.6321516+07:00  [INF] Now listening on: "http://127.0.0.1:7241" (d826f4b8)
2021-01-28T17:01:06.6423821+07:00  [INF] Application started. Press Ctrl+C to shut down. (dcaefe54)
2021-01-28T17:01:06.6449267+07:00  [INF] Hosting environment: "Production" (c3307c92)
2021-01-28T17:01:06.6483659+07:00  [INF] Content root path: "D:\CreatePenalty\New folder\CreatePenaltyAPI\CreatePenaltyAPI" (b5d60022)
2021-01-28T17:02:16.8148251+07:00  [INF] Now listening on: "http://127.0.0.1:23763" (d826f4b8)
2021-01-28T17:02:16.8252670+07:00  [INF] Application started. Press Ctrl+C to shut down. (dcaefe54)
2021-01-28T17:02:16.8280465+07:00  [INF] Hosting environment: "Production" (c3307c92)
2021-01-28T17:02:16.8303292+07:00  [INF] Content root path: "D:\CreatePenalty\New folder\CreatePenaltyAPI\CreatePenaltyAPI" (b5d60022)
2021-01-28T17:10:08.0184475+07:00  [INF] Now listening on: "http://127.0.0.1:36169" (d826f4b8)
2021-01-28T17:10:08.0296565+07:00  [INF] Application started. Press Ctrl+C to shut down. (dcaefe54)
2021-01-28T17:10:08.0320875+07:00  [INF] Hosting environment: "Production" (c3307c92)
2021-01-28T17:10:08.0345677+07:00  [INF] Content root path: "D:\CreatePenalty\New folder\CreatePenaltyAPI\CreatePenaltyAPI" (b5d60022)
2021-01-28T17:19:42.8661428+07:00  [INF] Now listening on: "http://127.0.0.1:38816" (d826f4b8)
2021-01-28T17:19:42.8775110+07:00  [INF] Application started. Press Ctrl+C to shut down. (dcaefe54)
2021-01-28T17:19:42.8803707+07:00  [INF] Hosting environment: "Production" (c3307c92)
2021-01-28T17:19:42.8828710+07:00  [INF] Content root path: "D:\CreatePenalty\New folder\CreatePenaltyAPI\CreatePenaltyAPI" (b5d60022)
2021-01-28T17:22:49.1135169+07:00  [INF] Now listening on: "http://127.0.0.1:8074" (d826f4b8)
2021-01-28T17:22:49.1265261+07:00  [INF] Application started. Press Ctrl+C to shut down. (dcaefe54)
2021-01-28T17:22:49.1290994+07:00  [INF] Hosting environment: "Production" (c3307c92)
2021-01-28T17:22:49.1315403+07:00  [INF] Content root path: "D:\CreatePenalty\New folder\CreatePenaltyAPI\CreatePenaltyAPI" (b5d60022)
2021-01-28T17:34:22.1018265+07:00  [INF] Now listening on: "http://127.0.0.1:39679" (d826f4b8)
2021-01-28T17:34:22.1148229+07:00  [INF] Application started. Press Ctrl+C to shut down. (dcaefe54)
2021-01-28T17:34:22.1179884+07:00  [INF] Hosting environment: "Production" (c3307c92)
2021-01-28T17:34:22.1219927+07:00  [INF] Content root path: "D:\CreatePenalty\New folder\CreatePenaltyAPI\CreatePenaltyAPI" (b5d60022)
2021-01-28T17:35:49.5422831+07:00  [INF] Now listening on: "http://127.0.0.1:28487" (d826f4b8)
2021-01-28T17:35:49.5616001+07:00  [INF] Application started. Press Ctrl+C to shut down. (dcaefe54)
2021-01-28T17:35:49.5684246+07:00  [INF] Hosting environment: "Production" (c3307c92)
2021-01-28T17:35:49.5737685+07:00  [INF] Content root path: "D:\CreatePenalty\New folder\CreatePenaltyAPI\CreatePenaltyAPI" (b5d60022)
