2021-01-27T11:15:41.9857184+07:00  [INF] Now listening on: "http://127.0.0.1:25582" (d826f4b8)
2021-01-27T11:15:41.9973845+07:00  [INF] Application started. Press Ctrl+C to shut down. (dcaefe54)
2021-01-27T11:15:42.0018185+07:00  [INF] Hosting environment: "Production" (c3307c92)
2021-01-27T11:15:42.0050979+07:00  [INF] Content root path: "D:\CreatePenalty\New folder\CreatePenaltyAPI\CreatePenaltyAPI" (b5d60022)
2021-01-27T11:18:58.6158338+07:00 0HM62F8R1B1GK:00000001 [ERR] Failed executing DbCommand ("76"ms) [Parameters=["@__content_projectId_0='?' (DbType = Int32)"], CommandType='Text', CommandTimeout='30']"
""SELECT [t].[Bookcode], [t].[InputTime], [t].[ProjectID]
FROM [Temp_Procces_Penalty] AS [t]
WHERE [t].[ProjectID] = @__content_projectId_0" (627a98df)
2021-01-27T11:28:00.9118949+07:00  [INF] Now listening on: "http://127.0.0.1:15230" (d826f4b8)
2021-01-27T11:28:00.9225682+07:00  [INF] Application started. Press Ctrl+C to shut down. (dcaefe54)
2021-01-27T11:28:00.9251732+07:00  [INF] Hosting environment: "Production" (c3307c92)
2021-01-27T11:28:00.9273722+07:00  [INF] Content root path: "D:\CreatePenalty\New folder\CreatePenaltyAPI\CreatePenaltyAPI" (b5d60022)
2021-01-27T16:59:28.2650755+07:00  [INF] Now listening on: "http://127.0.0.1:17707" (d826f4b8)
2021-01-27T16:59:28.2751061+07:00  [INF] Application started. Press Ctrl+C to shut down. (dcaefe54)
2021-01-27T16:59:28.2777709+07:00  [INF] Hosting environment: "Production" (c3307c92)
2021-01-27T16:59:28.2807352+07:00  [INF] Content root path: "D:\CreatePenalty\New folder\CreatePenaltyAPI\CreatePenaltyAPI" (b5d60022)
2021-01-27T17:01:00.0142475+07:00 0HM62L8U56EBO:00000003 [ERR] Connection id ""0HM62L8U56EBO"", Request id ""0HM62L8U56EBO:00000003"": An unhandled exception was thrown by the application. (560e7d32)
Microsoft.EntityFrameworkCore.DbUpdateConcurrencyException: Database operation expected to affect 1 row(s) but actually affected 0 row(s). Data may have been modified or deleted since entities were loaded. See http://go.microsoft.com/fwlink/?LinkId=527962 for information on understanding and handling optimistic concurrency exceptions.
   at Microsoft.EntityFrameworkCore.Update.AffectedCountModificationCommandBatch.ThrowAggregateUpdateConcurrencyException(Int32 commandIndex, Int32 expectedRowsAffected, Int32 rowsAffected)
   at Microsoft.EntityFrameworkCore.Update.AffectedCountModificationCommandBatch.ConsumeResultSetWithoutPropagationAsync(Int32 commandIndex, RelationalDataReader reader, CancellationToken cancellationToken)
   at Microsoft.EntityFrameworkCore.Update.AffectedCountModificationCommandBatch.ConsumeAsync(RelationalDataReader reader, CancellationToken cancellationToken)
   at Microsoft.EntityFrameworkCore.Update.ReaderModificationCommandBatch.ExecuteAsync(IRelationalConnection connection, CancellationToken cancellationToken)
   at Microsoft.EntityFrameworkCore.Update.ReaderModificationCommandBatch.ExecuteAsync(IRelationalConnection connection, CancellationToken cancellationToken)
   at Microsoft.EntityFrameworkCore.Update.Internal.BatchExecutor.ExecuteAsync(IEnumerable`1 commandBatches, IRelationalConnection connection, CancellationToken cancellationToken)
   at Microsoft.EntityFrameworkCore.Update.Internal.BatchExecutor.ExecuteAsync(IEnumerable`1 commandBatches, IRelationalConnection connection, CancellationToken cancellationToken)
   at Microsoft.EntityFrameworkCore.Update.Internal.BatchExecutor.ExecuteAsync(IEnumerable`1 commandBatches, IRelationalConnection connection, CancellationToken cancellationToken)
   at Microsoft.EntityFrameworkCore.ChangeTracking.Internal.StateManager.SaveChangesAsync(IList`1 entriesToSave, CancellationToken cancellationToken)
   at Microsoft.EntityFrameworkCore.ChangeTracking.Internal.StateManager.SaveChangesAsync(DbContext _, Boolean acceptAllChangesOnSuccess, CancellationToken cancellationToken)
   at Microsoft.EntityFrameworkCore.SqlServer.Storage.Internal.SqlServerExecutionStrategy.ExecuteAsync[TState,TResult](TState state, Func`4 operation, Func`4 verifySucceeded, CancellationToken cancellationToken)
   at Microsoft.EntityFrameworkCore.DbContext.SaveChangesAsync(Boolean acceptAllChangesOnSuccess, CancellationToken cancellationToken)
   at Microsoft.EntityFrameworkCore.DbContext.SaveChangesAsync(Boolean acceptAllChangesOnSuccess, CancellationToken cancellationToken)
   at CreatePenaltyAPI.Services.PenaltyService.CreatePenalty(ParamsDto content) in D:\CreatePenalty\New folder\CreatePenaltyAPI\CreatePenaltyAPI\Services\PenaltyService.cs:line 116
   at CreatePenaltyAPI.Controllers.PenaltyController.Create(ParamsDto content) in D:\CreatePenalty\New folder\CreatePenaltyAPI\CreatePenaltyAPI\Controllers\PenaltyController.cs:line 38
   at lambda_method(Closure , Object )
   at Microsoft.Extensions.Internal.ObjectMethodExecutorAwaitable.Awaiter.GetResult()
   at Microsoft.AspNetCore.Mvc.Infrastructure.ActionMethodExecutor.AwaitableObjectResultExecutor.Execute(IActionResultTypeMapper mapper, ObjectMethodExecutor executor, Object controller, Object[] arguments)
   at Microsoft.AspNetCore.Mvc.Infrastructure.ControllerActionInvoker.<InvokeActionMethodAsync>g__Awaited|12_0(ControllerActionInvoker invoker, ValueTask`1 actionResultValueTask)
   at Microsoft.AspNetCore.Mvc.Infrastructure.ControllerActionInvoker.<InvokeNextActionFilterAsync>g__Awaited|10_0(ControllerActionInvoker invoker, Task lastTask, State next, Scope scope, Object state, Boolean isCompleted)
   at Microsoft.AspNetCore.Mvc.Infrastructure.ControllerActionInvoker.Rethrow(ActionExecutedContextSealed context)
   at Microsoft.AspNetCore.Mvc.Infrastructure.ControllerActionInvoker.Next(State& next, Scope& scope, Object& state, Boolean& isCompleted)
   at Microsoft.AspNetCore.Mvc.Infrastructure.ControllerActionInvoker.<InvokeInnerFilterAsync>g__Awaited|13_0(ControllerActionInvoker invoker, Task lastTask, State next, Scope scope, Object state, Boolean isCompleted)
   at Microsoft.AspNetCore.Mvc.Infrastructure.ResourceInvoker.<InvokeNextResourceFilter>g__Awaited|24_0(ResourceInvoker invoker, Task lastTask, State next, Scope scope, Object state, Boolean isCompleted)
   at Microsoft.AspNetCore.Mvc.Infrastructure.ResourceInvoker.Rethrow(ResourceExecutedContextSealed context)
   at Microsoft.AspNetCore.Mvc.Infrastructure.ResourceInvoker.Next(State& next, Scope& scope, Object& state, Boolean& isCompleted)
   at Microsoft.AspNetCore.Mvc.Infrastructure.ResourceInvoker.<InvokeFilterPipelineAsync>g__Awaited|19_0(ResourceInvoker invoker, Task lastTask, State next, Scope scope, Object state, Boolean isCompleted)
   at Microsoft.AspNetCore.Mvc.Infrastructure.ResourceInvoker.<InvokeAsync>g__Awaited|17_0(ResourceInvoker invoker, Task task, IDisposable scope)
   at Microsoft.AspNetCore.Routing.EndpointMiddleware.<Invoke>g__AwaitRequestTask|6_0(Endpoint endpoint, Task requestTask, ILogger logger)
   at Microsoft.AspNetCore.Authorization.AuthorizationMiddleware.Invoke(HttpContext context)
   at Swashbuckle.AspNetCore.SwaggerUI.SwaggerUIMiddleware.Invoke(HttpContext httpContext)
   at Swashbuckle.AspNetCore.Swagger.SwaggerMiddleware.Invoke(HttpContext httpContext, ISwaggerProvider swaggerProvider)
   at Microsoft.AspNetCore.Server.IISIntegration.IISMiddleware.Invoke(HttpContext httpContext)
   at Microsoft.AspNetCore.Server.Kestrel.Core.Internal.Http.HttpProtocol.ProcessRequests[TContext](IHttpApplication`1 application)
2021-01-27T17:03:24.1498269+07:00  [INF] Now listening on: "http://127.0.0.1:27630" (d826f4b8)
2021-01-27T17:03:24.1595209+07:00  [INF] Application started. Press Ctrl+C to shut down. (dcaefe54)
2021-01-27T17:03:24.1618459+07:00  [INF] Hosting environment: "Production" (c3307c92)
2021-01-27T17:03:24.1643093+07:00  [INF] Content root path: "D:\CreatePenalty\New folder\CreatePenaltyAPI\CreatePenaltyAPI" (b5d60022)
2021-01-27T17:24:06.4805940+07:00  [INF] Now listening on: "http://127.0.0.1:3663" (d826f4b8)
2021-01-27T17:24:06.4904117+07:00  [INF] Application started. Press Ctrl+C to shut down. (dcaefe54)
2021-01-27T17:24:06.4927166+07:00  [INF] Hosting environment: "Production" (c3307c92)
2021-01-27T17:24:06.4949731+07:00  [INF] Content root path: "D:\CreatePenalty\New folder\CreatePenaltyAPI\CreatePenaltyAPI" (b5d60022)
2021-01-27T17:26:15.7017572+07:00  [INF] Now listening on: "http://127.0.0.1:27200" (d826f4b8)
2021-01-27T17:26:15.7125103+07:00  [INF] Application started. Press Ctrl+C to shut down. (dcaefe54)
2021-01-27T17:26:15.7148361+07:00  [INF] Hosting environment: "Production" (c3307c92)
2021-01-27T17:26:15.7176785+07:00  [INF] Content root path: "D:\CreatePenalty\New folder\CreatePenaltyAPI\CreatePenaltyAPI" (b5d60022)
2021-01-27T17:29:55.7899782+07:00  [INF] Now listening on: "http://127.0.0.1:42101" (d826f4b8)
2021-01-27T17:29:55.8061352+07:00  [INF] Application started. Press Ctrl+C to shut down. (dcaefe54)
2021-01-27T17:29:55.8086441+07:00  [INF] Hosting environment: "Production" (c3307c92)
2021-01-27T17:29:55.8145621+07:00  [INF] Content root path: "D:\CreatePenalty\New folder\CreatePenaltyAPI\CreatePenaltyAPI" (b5d60022)
