2021-01-20T09:10:21.1776681+07:00  [INF] Application started. Press Ctrl+C to shut down. (dcaefe54)
2021-01-20T09:10:21.1900172+07:00  [INF] Hosting environment: "Development" (c3307c92)
2021-01-20T09:10:21.1953951+07:00  [INF] Content root path: "D:\CreatePenalty\New folder\CreatePenaltyAPI\CreatePenaltyAPI" (b5d60022)
2021-01-20T09:11:20.4556481+07:00  [INF] Application started. Press Ctrl+C to shut down. (dcaefe54)
2021-01-20T09:11:20.4673820+07:00  [INF] Hosting environment: "Development" (c3307c92)
2021-01-20T09:11:20.4706846+07:00  [INF] Content root path: "D:\CreatePenalty\New folder\CreatePenaltyAPI\CreatePenaltyAPI" (b5d60022)
2021-01-20T09:12:43.1597766+07:00  [INF] Application started. Press Ctrl+C to shut down. (dcaefe54)
2021-01-20T09:12:43.1688440+07:00  [INF] Hosting environment: "Development" (c3307c92)
2021-01-20T09:12:43.1712960+07:00  [INF] Content root path: "D:\CreatePenalty\New folder\CreatePenaltyAPI\CreatePenaltyAPI" (b5d60022)
2021-01-20T09:14:57.2928426+07:00  [INF] Application started. Press Ctrl+C to shut down. (dcaefe54)
2021-01-20T09:14:57.3165605+07:00  [INF] Hosting environment: "Development" (c3307c92)
2021-01-20T09:14:57.3212631+07:00  [INF] Content root path: "D:\CreatePenalty\New folder\CreatePenaltyAPI\CreatePenaltyAPI" (b5d60022)
2021-01-20T09:15:57.5642457+07:00  [INF] Application started. Press Ctrl+C to shut down. (dcaefe54)
2021-01-20T09:15:57.5743916+07:00  [INF] Hosting environment: "Development" (c3307c92)
2021-01-20T09:15:57.5776023+07:00  [INF] Content root path: "D:\CreatePenalty\New folder\CreatePenaltyAPI\CreatePenaltyAPI" (b5d60022)
2021-01-20T09:17:20.3397799+07:00  [INF] Application started. Press Ctrl+C to shut down. (dcaefe54)
2021-01-20T09:17:20.3494143+07:00  [INF] Hosting environment: "Development" (c3307c92)
2021-01-20T09:17:20.3598263+07:00  [INF] Content root path: "D:\CreatePenalty\New folder\CreatePenaltyAPI\CreatePenaltyAPI" (b5d60022)
2021-01-20T09:20:51.7537832+07:00  [INF] Application started. Press Ctrl+C to shut down. (dcaefe54)
2021-01-20T09:20:51.7691938+07:00  [INF] Hosting environment: "Development" (c3307c92)
2021-01-20T09:20:51.7715835+07:00  [INF] Content root path: "D:\CreatePenalty\New folder\CreatePenaltyAPI\CreatePenaltyAPI" (b5d60022)
2021-01-20T09:22:41.6408264+07:00  [INF] Application started. Press Ctrl+C to shut down. (dcaefe54)
2021-01-20T09:22:41.6516286+07:00  [INF] Hosting environment: "Development" (c3307c92)
2021-01-20T09:22:41.6538583+07:00  [INF] Content root path: "D:\CreatePenalty\New folder\CreatePenaltyAPI\CreatePenaltyAPI" (b5d60022)
2021-01-20T09:23:06.6294092+07:00 8000001e-0002-fd00-b63f-84710c7967bb [ERR] An exception occurred while iterating over the results of a query for context type '"CreatePenaltyAPI.Context.STGPropertySystemContext"'."
""System.InvalidCastException: Unable to cast object of type 'System.Int64' to type 'System.Int32'.
   at Microsoft.Data.SqlClient.SqlBuffer.get_Int32()
   at Microsoft.Data.SqlClient.SqlDataReader.GetInt32(Int32 i)
   at lambda_method(Closure , QueryContext , DbDataReader , ResultContext , SingleQueryResultCoordinator )
   at Microsoft.EntityFrameworkCore.Query.Internal.SingleQueryingEnumerable`1.Enumerator.MoveNext()" (f5c7ac34)
System.InvalidCastException: Unable to cast object of type 'System.Int64' to type 'System.Int32'.
   at Microsoft.Data.SqlClient.SqlBuffer.get_Int32()
   at Microsoft.Data.SqlClient.SqlDataReader.GetInt32(Int32 i)
   at lambda_method(Closure , QueryContext , DbDataReader , ResultContext , SingleQueryResultCoordinator )
   at Microsoft.EntityFrameworkCore.Query.Internal.SingleQueryingEnumerable`1.Enumerator.MoveNext()
   at System.Linq.Enumerable.SingleOrDefault[TSource](IEnumerable`1 source)
   at Microsoft.EntityFrameworkCore.Query.Internal.QueryCompiler.Execute[TResult](Expression query)
   at Microsoft.EntityFrameworkCore.Query.Internal.EntityQueryProvider.Execute[TResult](Expression expression)
   at System.Linq.Queryable.FirstOrDefault[TSource](IQueryable`1 source, Expression`1 predicate)
   at Microsoft.EntityFrameworkCore.Internal.EntityFinder`1.Find(Object[] keyValues)
   at Microsoft.EntityFrameworkCore.Internal.InternalDbSet`1.Find(Object[] keyValues)
   at CreatePenaltyAPI.Services.PenaltyService.UpdateBookingSchedule(Int32 bookingHeaderID, Int32 bookingDetailID, Int32 userID) in D:\CreatePenalty\New folder\CreatePenaltyAPI\CreatePenaltyAPI\Services\PenaltyService.cs:line 430
2021-01-20T09:32:17.3460386+07:00  [INF] Application started. Press Ctrl+C to shut down. (dcaefe54)
2021-01-20T09:32:17.3591980+07:00  [INF] Hosting environment: "Development" (c3307c92)
2021-01-20T09:32:17.3639567+07:00  [INF] Content root path: "D:\CreatePenalty\New folder\CreatePenaltyAPI\CreatePenaltyAPI" (b5d60022)
2021-01-20T09:59:29.0395727+07:00  [INF] Application started. Press Ctrl+C to shut down. (dcaefe54)
2021-01-20T09:59:29.0499596+07:00  [INF] Hosting environment: "Development" (c3307c92)
2021-01-20T09:59:29.0523475+07:00  [INF] Content root path: "D:\CreatePenalty\New folder\CreatePenaltyAPI\CreatePenaltyAPI" (b5d60022)
2021-01-20T10:25:39.0235381+07:00  [INF] Application started. Press Ctrl+C to shut down. (dcaefe54)
2021-01-20T10:25:39.0383054+07:00  [INF] Hosting environment: "Development" (c3307c92)
2021-01-20T10:25:39.0463903+07:00  [INF] Content root path: "D:\CreatePenalty\New folder\CreatePenaltyAPI\CreatePenaltyAPI" (b5d60022)
